<?xml version="1.0" encoding="utf-8"?>
<!-- Generator: Adobe Illustrator 16.0.0, SVG Export Plug-In . SVG Version: 6.00 Build 0)  -->
<!DOCTYPE svg PUBLIC "-//W3C//DTD SVG 1.1//EN" "http://www.w3.org/Graphics/SVG/1.1/DTD/svg11.dtd">
<svg version="1.1" id="Layer_1" xmlns="http://www.w3.org/2000/svg" xmlns:xlink="http://www.w3.org/1999/xlink" x="0px" y="0px"
	 width="119px" height="63.903px" viewBox="196.5 224.049 119 63.903" enable-background="new 196.5 224.049 119 63.903"
	 xml:space="preserve">
<path id="arrow-54-icon" fill="#C35656" d="M277.227,244.649v-11.721L315.5,260.44l-38.273,27.512V276.23
	c0,0-67.228-9.852-80.727-52.182C225.24,246.207,277.227,244.649,277.227,244.649z"/>
</svg>
