<?xml version="1.0" encoding="utf-8"?>
<!-- Generator: Adobe Illustrator 16.0.0, SVG Export Plug-In . SVG Version: 6.00 Build 0)  -->
<!DOCTYPE svg PUBLIC "-//W3C//DTD SVG 1.1//EN" "http://www.w3.org/Graphics/SVG/1.1/DTD/svg11.dtd">
<svg version="1.1" id="Page_1" xmlns="http://www.w3.org/2000/svg" xmlns:xlink="http://www.w3.org/1999/xlink" x="0px" y="0px"
	 width="281.25px" height="100px" viewBox="0 0 281.25 100" enable-background="new 0 0 281.25 100" xml:space="preserve">
<g id="Layer_1_1_">
	<g>
		<g>
			<g>
				<path fill-rule="evenodd" clip-rule="evenodd" fill="#ED1C24" d="M265.854,39.261c0-3.075,2.384-5.563,5.297-5.563
					c2.925,0,5.284,2.489,5.284,5.563c0,3.079-2.359,5.568-5.284,5.568C268.237,44.829,265.854,42.34,265.854,39.261L265.854,39.261
					z M271.15,43.51c2.223,0,4.04-1.909,4.04-4.25c0-2.328-1.817-4.221-4.04-4.221c-2.217,0-4.039,1.893-4.039,4.221
					C267.111,41.602,268.934,43.51,271.15,43.51L271.15,43.51z M270.43,41.699h-1.085v-4.901h1.966c0.399,0,0.85,0.024,1.194,0.271
					c0.377,0.276,0.591,0.74,0.591,1.231c0,0.543-0.307,1.051-0.8,1.236l0.851,2.164h-1.207l-0.715-1.921h-0.795V41.699
					L270.43,41.699z M270.43,38.945h0.604c0.223,0,0.481,0.008,0.665-0.102c0.186-0.119,0.266-0.357,0.266-0.567
					c0-0.185-0.104-0.406-0.266-0.493c-0.159-0.11-0.485-0.085-0.678-0.085h-0.591V38.945L270.43,38.945z"/>
			</g>
			<path fill-rule="evenodd" clip-rule="evenodd" fill="#ED1C24" d="M190.155,2.266l-1.446,9.434
				c-3.146-1.675-5.463-2.331-7.932-2.331c-6.597,0-11.258,6.703-11.258,16.273c0,6.61,3.128,10.592,8.275,10.592
				c2.186,0,4.587-0.702,7.526-2.241l-1.546,9.927c-3.252,0.936-5.369,1.268-7.828,1.268c-9.55,0-15.495-7.205-15.495-18.77
				C160.452,10.863,168.661,0,180.406,0c1.516,0,2.87,0.148,3.972,0.467l3.653,0.957C189.114,1.855,189.361,1.921,190.155,2.266
				L190.155,2.266z"/>
			<path fill-rule="evenodd" clip-rule="evenodd" fill="#ED1C24" d="M160.754,8.732c-0.275-0.053-0.584-0.091-0.904-0.091
				c-2.919,0-4.57,1.544-7.28,5.757l0.789-5.375h-8.024l-5.44,35.365h8.901c3.185-21.615,3.997-25.348,8.264-25.348
				c0.26,0,0.284,0,0.647,0.037c0.788-4.262,1.867-7.395,3.351-10.252L160.754,8.732L160.754,8.732z"/>
			<path fill-rule="evenodd" clip-rule="evenodd" fill="#ED1C24" d="M107.723,43.958c-2.408,0.801-4.311,1.166-6.355,1.166
				c-4.521,0-6.989-2.754-6.989-7.779c0-0.986,0.073-2.049,0.252-3.17l0.548-3.449l0.407-2.817l3.843-24.132h8.806l-1.009,5.248
				h4.533l-1.244,8.597h-4.521l-2.34,14.76c-0.08,0.651-0.148,1.132-0.148,1.465c0,1.811,0.924,2.62,3.017,2.62
				c1.022,0,1.792-0.107,2.384-0.33L107.723,43.958L107.723,43.958z"/>
			<path fill-rule="evenodd" clip-rule="evenodd" fill="#ED1C24" d="M72.804,20.207c0,4.463,2.057,7.55,6.713,9.857
				c3.566,1.773,4.132,2.29,4.132,3.9c0,2.197-1.583,3.215-5.068,3.215c-2.63,0-5.086-0.439-7.92-1.416l-1.225,8.157l0.4,0.085
				l1.626,0.345c0.523,0.111,1.293,0.21,2.309,0.321c2.112,0.197,3.732,0.291,4.877,0.291c9.293,0,13.592-3.752,13.592-11.807
				c0-4.84-1.792-7.703-6.22-9.845c-3.695-1.761-4.114-2.176-4.114-3.818c0-1.918,1.466-2.904,4.312-2.904
				c1.736,0,4.088,0.206,6.336,0.526l1.263-8.167c-2.31-0.394-5.74-0.697-7.772-0.697C76.186,8.252,72.768,13.68,72.804,20.207
				L72.804,20.207z"/>
			<path fill-rule="evenodd" clip-rule="evenodd" fill="#ED1C24" d="M260.712,44.389h-8.38l0.436-3.465
				c-2.438,2.738-4.945,3.933-8.185,3.933c-6.479,0-10.721-5.838-10.721-14.681c0-11.763,6.595-21.695,14.429-21.695
				c3.442,0,6.047,1.491,8.499,4.841l1.926-12.423h8.734L260.712,44.389L260.712,44.389z M247.638,36.063
				c4.139,0,7.033-4.915,7.033-11.914c0-4.495-1.649-6.942-4.711-6.942c-4.016,0-6.866,4.935-6.866,11.894
				C243.094,33.731,244.626,36.063,247.638,36.063L247.638,36.063z"/>
			<path fill-rule="evenodd" clip-rule="evenodd" fill="#ED1C24" d="M135.78,43.646c-3.03,0.952-5.961,1.433-9.102,1.42
				c-9.878,0-15.039-5.437-15.039-15.831c0-12.154,6.565-21.1,15.488-21.1c7.279,0,11.954,5.014,11.954,12.873
				c0,2.602-0.314,5.139-1.103,8.724h-17.613c-0.074,0.539-0.086,0.784-0.086,1.097c0,4.133,2.636,6.215,7.791,6.215
				c3.159,0,6.005-0.686,9.188-2.25L135.78,43.646L135.78,43.646z M130.811,22.587c0.05-0.738,0.062-1.341,0.062-1.79
				c0-2.89-1.558-4.578-4.194-4.578c-2.809,0-4.822,2.253-5.647,6.343L130.811,22.587L130.811,22.587z"/>
			<polygon fill-rule="evenodd" clip-rule="evenodd" fill="#ED1C24" points="37.24,44.389 28.391,44.389 33.458,10.97 
				22.133,44.389 16.067,44.389 15.334,11.167 9.995,44.389 1.706,44.389 8.622,0.899 21.376,0.899 21.727,27.811 30.336,0.899 
				44.1,0.899 37.24,44.389 			"/>
			<path fill-rule="evenodd" clip-rule="evenodd" fill="#ED1C24" d="M60.045,28.636c-0.937-0.111-1.349-0.153-1.984-0.153
				c-5.019,0-7.562,1.827-7.562,5.399c0,2.202,1.25,3.605,3.184,3.605C57.285,37.488,59.897,33.882,60.045,28.636L60.045,28.636z
				 M66.486,44.389h-7.335l0.16-3.671c-2.235,2.928-5.222,4.286-9.281,4.286c-4.815,0-8.104-3.941-8.104-9.636
				c0-8.633,5.746-13.646,15.568-13.646c1.003,0,2.284,0.078,3.603,0.262c0.277-1.17,0.351-1.675,0.351-2.295
				c0-2.336-1.54-3.223-5.691-3.223c-2.506,0-5.382,0.381-7.365,1.01l-1.231,0.357l-0.776,0.229l1.219-7.932
				c4.422-1.375,7.335-1.904,10.617-1.904c7.612,0,11.646,3.592,11.646,10.37c0,1.761-0.129,3.067-0.732,7.016l-1.854,12.531
				l-0.302,2.263l-0.228,1.802l-0.154,1.231L66.486,44.389L66.486,44.389z"/>
			<path fill-rule="evenodd" clip-rule="evenodd" fill="#ED1C24" d="M205.417,28.636c-0.925-0.111-1.349-0.153-1.972-0.153
				c-5.038,0-7.587,1.827-7.587,5.399c0,2.202,1.263,3.605,3.195,3.605C202.677,37.488,205.255,33.882,205.417,28.636
				L205.417,28.636z M211.863,44.389h-7.347l0.173-3.671c-2.236,2.928-5.229,4.286-9.281,4.286c-4.816,0-8.115-3.941-8.115-9.636
				c0-8.633,5.738-13.646,15.579-13.646c0.997,0,2.292,0.078,3.604,0.262c0.271-1.17,0.352-1.675,0.352-2.295
				c0-2.336-1.542-3.223-5.692-3.223c-2.518,0-5.389,0.381-7.353,1.01l-1.262,0.357l-0.764,0.229l1.23-7.932
				c4.428-1.375,7.336-1.904,10.593-1.904c7.624,0,11.657,3.592,11.657,10.37c0,1.761-0.152,3.067-0.727,7.016l-1.864,12.531
				l-0.277,2.263l-0.248,1.802l-0.158,1.231L211.863,44.389L211.863,44.389z"/>
			<path fill-rule="evenodd" clip-rule="evenodd" fill="#ED1C24" d="M236.609,8.732c-0.266-0.053-0.556-0.091-0.895-0.091
				c-2.905,0-4.568,1.544-7.291,5.757l0.787-5.375H221.2l-5.42,35.365h8.875c3.183-21.615,4.021-25.348,8.258-25.348
				c0.278,0,0.26-0.024,0.623,0.037c0.799-4.262,1.883-7.395,3.375-10.252L236.609,8.732L236.609,8.732z"/>
		</g>
		<g>
			<path fill-rule="evenodd" clip-rule="evenodd" fill="#F8951D" d="M199.436,78.688c0,8.019-2.481,12.739-6.392,12.739
				c-2.858,0.087-4.589-3.095-4.589-7.856c0-5.63,2.531-12.011,6.589-12.011C198.31,71.561,199.436,75.019,199.436,78.688
				L199.436,78.688z M208.151,78.836c0-8.912-4.403-15.848-12.682-15.848c-9.526,0-15.696,8.434-15.696,20.853
				c0,8.889,3.645,16.159,12.667,16.159C201.541,100,208.151,93.555,208.151,78.836L208.151,78.836z"/>
			<path fill-rule="evenodd" clip-rule="evenodd" fill="#F8951D" d="M182.617,56.732l-1.355,9.422
				c-2.943-1.663-5.087-2.353-7.401-2.353c-6.189,0-10.512,6.733-10.512,16.304c0,6.605,2.893,10.605,7.715,10.605
				c2.057,0,4.306-0.704,7.04-2.243l-1.436,9.919c-3.06,0.945-5.062,1.269-7.335,1.269c-8.917,0-14.472-7.208-14.472-18.774
				c0-15.564,7.666-26.427,18.647-26.427c1.423,0,2.679,0.18,3.719,0.467l3.388,0.961C181.662,56.297,181.879,56.37,182.617,56.732
				L182.617,56.732z"/>
			<path fill-rule="evenodd" clip-rule="evenodd" fill="#F8951D" d="M127.843,63.206c-0.252-0.069-0.542-0.098-0.85-0.098
				c-2.686,0-4.262,1.552-6.78,5.751l0.732-5.366h-7.489l-5.056,35.37h8.271c2.975-21.636,3.763-25.36,7.729-25.36
				c0.233,0,0.258,0,0.603,0.041c0.746-4.278,1.75-7.414,3.141-10.276L127.843,63.206L127.843,63.206z"/>
			<path fill-rule="evenodd" clip-rule="evenodd" fill="#F8951D" d="M235.889,98.486h-7.815l0.399-3.453
				c-2.273,2.723-4.639,3.93-7.661,3.93c-6.028,0-10.007-5.848-10.007-14.69c0-11.743,6.177-21.702,13.481-21.702
				c3.22,0,5.664,1.522,7.925,4.873l1.822-12.436h8.143L235.889,98.486L235.889,98.486z M223.657,90.167
				c3.897,0,6.583-4.91,6.583-11.917c0-4.509-1.532-6.928-4.38-6.928c-3.761,0-6.435,4.915-6.435,11.899
				C219.426,87.828,220.861,90.167,223.657,90.167L223.657,90.167z"/>
			<path fill-rule="evenodd" clip-rule="evenodd" fill="#F8951D" d="M50.277,98.338c-2.813,0.973-5.555,1.44-8.474,1.44
				c-9.237,0-14.059-5.447-14.059-15.838c0-12.137,6.134-21.091,14.46-21.091c6.817,0,11.165,5.005,11.165,12.863
				c0,2.599-0.295,5.144-1.003,8.728H35.879c-0.05,0.529-0.068,0.792-0.068,1.101c0,4.121,2.469,6.204,7.267,6.204
				c2.957,0,5.629-0.689,8.592-2.241L50.277,98.338L50.277,98.338z M45.652,77.297c0.038-0.746,0.062-1.343,0.062-1.798
				c0-2.883-1.454-4.57-3.911-4.57c-2.642,0-4.52,2.271-5.277,6.331L45.652,77.297L45.652,77.297z"/>
			<path fill-rule="evenodd" clip-rule="evenodd" fill="#F8951D" d="M148.673,98.338c-2.821,0.973-5.566,1.44-8.477,1.44
				c-9.256,0-14.072-5.447-14.072-15.838c0-12.137,6.14-21.091,14.46-21.091c6.819,0,11.18,5.005,11.18,12.863
				c0,2.599-0.308,5.144-1.04,8.728h-16.452c-0.049,0.529-0.08,0.792-0.08,1.101c0,4.121,2.463,6.204,7.263,6.204
				c2.956,0,5.634-0.689,8.597-2.241L148.673,98.338L148.673,98.338z M144.021,77.297c0.057-0.746,0.087-1.343,0.087-1.798
				c0-2.883-1.466-4.57-3.912-4.57c-2.642,0-4.521,2.271-5.284,6.331L144.021,77.297L144.021,77.297z"/>
			<path fill-rule="evenodd" clip-rule="evenodd" fill="#F8951D" d="M264.111,98.338c-2.856,0.973-5.566,1.44-8.499,1.44
				c-9.237,0-14.071-5.447-14.071-15.838c0-12.137,6.152-21.091,14.473-21.091c6.816,0,11.158,5.005,11.158,12.863
				c0,2.599-0.283,5.144-1.016,8.728h-16.468c-0.055,0.529-0.067,0.792-0.067,1.101c0,4.121,2.47,6.204,7.267,6.204
				c2.962,0,5.629-0.689,8.597-2.241L264.111,98.338L264.111,98.338z M259.462,77.297c0.038-0.746,0.063-1.343,0.063-1.798
				c0-2.883-1.448-4.57-3.912-4.57c-2.642,0-4.514,2.271-5.276,6.331L259.462,77.297L259.462,77.297z"/>
			<path fill-rule="evenodd" clip-rule="evenodd" fill="#F8951D" d="M25.791,64.807c-1.62-1.083-3.812-2.03-6.91-2.03
				c-3.344,0-6.035,0.692-6.035,4.253c0,6.281,12.193,3.937,12.193,17.392c0,12.254-8.048,15.433-15.328,15.433
				c-3.239,0-6.965-1.072-9.711-2.292l1.977-9.007c1.657,1.506,5,2.537,7.735,2.537c2.605,0,6.688-0.711,6.688-5.26
				c0-7.118-12.187-4.471-12.187-16.968c0-11.431,7.119-14.854,13.986-14.854c3.868,0,7.5,0.566,9.631,1.984L25.791,64.807
				L25.791,64.807z"/>
			<path fill-rule="evenodd" clip-rule="evenodd" fill="#F8951D" d="M74.498,98.326c-1.706,0.821-3.984,1.362-7.347,1.362
				c-7.229,0-11.712-7.227-11.712-16.024c0-11.516,6.485-20.7,16.03-20.7c2.082,0,5.259,0.9,7.766,2.353l-1.83,8.446
				c-1.774-1.166-3.621-1.906-5.524-1.906c-4.422,0-7.581,4.053-7.581,11.316c0,4.179,2.291,7.61,5.912,7.61
				c2.155,0,3.67-0.456,5.524-1.539L74.498,98.326L74.498,98.326z"/>
			<path fill-rule="evenodd" clip-rule="evenodd" fill="#F8951D" d="M105.438,89.47c-0.425,3.043-0.82,5.998-1.054,9.172h-7.963
				l0.671-5.716h-0.08c-2.494,3.885-5.074,6.529-9.583,6.529c-5,0-7.709-5.26-7.709-12.129c0-2.368,0.147-3.706,0.677-7.405
				l2.254-16.369h8.861L89.137,79.97c-0.241,1.766-0.579,3.515-0.579,5.338c0,2.068,0.942,4.162,3.332,4.036
				c3.633,0,5.776-4.443,6.386-9.629l2.445-16.163h8.578L105.438,89.47L105.438,89.47z"/>
			<g>
				<polygon fill-rule="evenodd" clip-rule="evenodd" fill="#F8951D" points="272.368,98.213 271.028,98.213 271.028,92.35 
					269.092,92.35 269.092,91.091 274.305,91.091 274.305,92.35 272.368,92.35 272.368,98.213 				"/>
				<polygon fill-rule="evenodd" clip-rule="evenodd" fill="#F8951D" points="281.25,98.213 280.002,98.213 280.002,92.261 
					279.983,92.261 278.787,98.213 277.474,98.213 276.305,92.261 276.286,92.261 276.286,98.213 275.037,98.213 275.037,91.091 
					276.991,91.091 278.152,96.706 278.171,96.706 279.313,91.091 281.25,91.091 281.25,98.213 				"/>
			</g>
		</g>
	</g>
</g>
</svg>
